[
  {
    "_id": "5acd549d12c38c567bf71198",
    "index": 0,
    "isActive": false,
    "picture": "http://placehold.it/1280x550",
    "author": {
      "name": "Michael Lloyd",
      "about": "Sit voluptate amet enim duis magna nulla aliquip. Fugiat culpa id do do nulla. Mollit exercitation magna laboris dolor veniam ex sit enim. Voluptate Lorem enim id voluptate consectetur. Ullamco adipisicing aute mollit deserunt cillum. Ullamco sunt aliquip tempor aute velit laboris voluptate officia eu duis officia esse incididunt.",
      "email": "undefined.undefined@undefined.biz"
    },
    "title": "ZIDANT MSMAIA",
    "about": "Aute velit dolore irure nostrud. Consequat ad et nulla cillum qui sunt aliqua sit id officia cillum. Minim non velit est tempor ullamco enim exercitation sint elit. Adipisicing irure sunt mollit tempor esse. Cupidatat deserunt consequat elit voluptate pariatur. Dolore pariatur non amet duis deserunt consequat commodo dolor nostrud eiusmod labore.\n\nIncididunt qui excepteur esse commodo. Voluptate voluptate enim irure non esse adipisicing irure excepteur tempor. Aliquip ex aliqua voluptate ipsum ad culpa id mollit pariatur laborum aliquip labore quis cillum. Aliqua duis elit in magna reprehenderit ex irure officia non officia non pariatur."
  },
  {
    "_id": "5acd549eae2ae780769adf59",
    "index": 1,
    "isActive": false,
    "picture": "http://placehold.it/1280x550",
    "author": {
      "name": "Blair Joyner",
      "about": "Ut magna mollit nisi duis consectetur exercitation eu dolor ea sint quis esse. Id ipsum ad eiusmod aute pariatur dolor velit eiusmod nisi. Duis pariatur tempor do exercitation irure non laboris minim laborum voluptate cillum irure proident in. Irure duis do officia esse deserunt velit culpa eiusmod exercitation magna exercitation sit.",
      "email": "undefined.undefined@undefined.io"
    },
    "title": "BOILICON",
    "about": "Sit dolore anim duis magna minim nisi. Ea pariatur commodo est in laborum aliqua excepteur sint labore cillum. Labore exercitation aliqua consectetur cupidatat ipsum. Ad commodo tempor laboris occaecat eu enim ullamco commodo ea qui. Velit aliquip enim irure sit esse irure dolore reprehenderit aute. Quis eiusmod nulla non exercitation esse magna laborum in magna cillum ut labore ullamco.\n\nVoluptate magna ex laboris elit. Nisi irure amet consequat officia non magna pariatur. Proident nulla deserunt minim et quis consectetur enim magna reprehenderit nisi. Pariatur eu laborum tempor Lorem ea labore cupidatat."
  },
  {
    "_id": "5acd549e0b113040bb515975",
    "index": 2,
    "isActive": true,
    "picture": "http://placehold.it/1280x550",
    "author": {
      "name": "Jamie Clayton",
      "about": "Commodo do nostrud dolore mollit veniam sit ex aliquip. Aliqua pariatur nisi commodo incididunt sunt sunt minim ex ex commodo minim culpa ex adipisicing. Excepteur exercitation labore do ipsum pariatur minim eu et cillum dolor aute dolor. Incididunt mollit quis voluptate esse. Eiusmod do Lorem magna fugiat magna anim in nulla magna elit labore.",
      "email": "undefined.undefined@undefined.biz"
    },
    "title": "ZOLAREX",
    "about": "Est culpa amet sit ullamco non. Exercitation tempor sint veniam quis nostrud incididunt officia cupidatat in aliqua ad anim. Veniam est ea commodo id sunt enim tempor exercitation elit. Dolor minim ex velit excepteur ipsum culpa consequat tempor esse.\n\nAmet incididunt velit fugiat quis irure sit anim do aliquip ad in proident laboris. Pariatur est labore laborum eu et anim mollit voluptate cupidatat. Incididunt mollit quis qui cupidatat incididunt esse irure proident anim est aute. Laboris deserunt minim elit cupidatat eu. Cupidatat culpa reprehenderit id deserunt labore in nisi proident aliqua nisi sit. Nisi nisi labore ea ullamco."
  },
  {
    "_id": "5acd549e943ff489e8fa0603",
    "index": 3,
    "isActive": false,
    "picture": "http://placehold.it/1280x550",
    "author": {
      "name": "Shanna Spears",
      "about": "Do ipsum aliqua est culpa nisi cillum ad magna ex commodo. Eu dolor sit exercitation ipsum ea. Nulla cillum nulla sunt sit nisi irure amet culpa officia do laboris. Sit ad incididunt et labore incididunt sunt.",
      "email": "undefined.undefined@undefined.info"
    },
    "title": "LOVEPAD",
    "about": "Velit in anim consectetur voluptate. Voluptate incididunt sit reprehenderit fugiat incididunt ea magna ullamco consectetur reprehenderit commodo ea. Minim minim voluptate commodo sint amet aliquip officia. Tempor labore magna mollit mollit ea dolor qui exercitation.\n\nEx aute incididunt in sunt dolore ad culpa ullamco proident magna laborum commodo mollit non. Eu culpa ullamco ad labore velit cupidatat veniam dolor voluptate veniam. Consectetur anim laboris irure nostrud deserunt non incididunt amet nisi exercitation. Consequat excepteur eiusmod do minim sit tempor et culpa pariatur in. Aliquip ut tempor esse anim minim irure labore."
  },
  {
    "_id": "5acd549e1191548ffdbcd0a5",
    "index": 4,
    "isActive": true,
    "picture": "http://placehold.it/1280x550",
    "author": {
      "name": "Rhodes Poole",
      "about": "Sunt sit aute ad dolore labore minim anim consequat officia aliqua duis est. Commodo ullamco duis quis mollit anim exercitation. Id nisi laborum ut amet do sit laborum ex voluptate eu cillum Lorem labore officia.",
      "email": "undefined.undefined@undefined.org"
    },
    "title": "GEEKMOSIS",
    "about": "Culpa incididunt laborum fugiat commodo in aliquip esse officia commodo incididunt minim esse ex. Laboris deserunt fugiat pariatur non. Eiusmod aliquip dolore elit reprehenderit dolore. Voluptate veniam et mollit eiusmod. Occaecat dolor sit labore commodo tempor.\n\nCulpa quis ullamco quis et et irure aliquip dolor anim Lorem minim sint in. Ut aliqua laboris ea voluptate minim. Labore cupidatat mollit et id do ut fugiat in aute. Magna anim eu nulla cillum sunt consequat officia officia officia ex sit eiusmod officia. Velit aliquip cupidatat duis et tempor mollit velit esse irure minim."
  },
  {
    "_id": "5acd549e4c66eba0061b950d",
    "index": 5,
    "isActive": false,
    "picture": "http://placehold.it/1280x550",
    "author": {
      "name": "Pierce Holland",
      "about": "Nisi elit occaecat officia sit esse laborum tempor. Incididunt occaecat laborum magna nulla exercitation excepteur mollit anim excepteur excepteur. Esse irure magna cillum nulla magna nulla pariatur laborum amet et consequat ullamco. Enim elit duis do qui ex. Occaecat pariatur irure ut pariatur cupidatat ea magna velit mollit adipisicing ex sint proident quis. Lorem veniam culpa pariatur qui sint culpa culpa consequat Lorem veniam laborum labore.",
      "email": "undefined.undefined@undefined.co.uk"
    },
    "title": "NETPLODE",
    "about": "Enim mollit nisi excepteur Lorem irure tempor culpa amet voluptate magna id enim. Occaecat sit ullamco officia aute voluptate incididunt nulla non. Ullamco quis cupidatat nostrud qui reprehenderit consequat incididunt fugiat officia nisi duis sint ea. Duis id aliquip culpa nostrud officia sint pariatur sit do ea deserunt sit. Anim ex consectetur est officia ea occaecat commodo eiusmod excepteur aliqua adipisicing fugiat proident. Dolor mollit sit veniam duis ex tempor laborum id minim anim ipsum ex cillum.\n\nExercitation irure laboris excepteur Lorem deserunt esse esse nisi quis voluptate occaecat aliqua dolore. Voluptate irure eiusmod adipisicing dolor in. Laboris nisi elit laborum ea laboris veniam irure adipisicing. Mollit aliqua esse incididunt ipsum reprehenderit pariatur. Nulla tempor eu magna ullamco commodo exercitation sunt voluptate sunt non eiusmod anim. Est eu ea aute ad."
  },
  {
    "_id": "5acd549eedae74ce024da2f2",
    "index": 6,
    "isActive": true,
    "picture": "http://placehold.it/1280x550",
    "author": {
      "name": "Ila Jordan",
      "about": "In nulla irure laborum incididunt est cillum cupidatat irure nulla proident. Labore culpa nulla nulla occaecat dolore adipisicing ad non eiusmod. Deserunt id et reprehenderit veniam reprehenderit velit incididunt.",
      "email": "undefined.undefined@undefined.com"
    },
    "title": "SHADEASE",
    "about": "Commodo dolore nostrud nisi dolor dolore deserunt et esse aute elit magna aliquip non. Ex elit eu cupidatat quis nulla culpa qui qui id. Sit proident irure magna esse aliquip sunt non minim magna. Lorem cillum consectetur aliqua et cillum tempor.\n\nSunt aliquip cillum veniam elit exercitation cupidatat deserunt veniam minim laboris dolore ex. Laborum nostrud tempor proident ut. Ex do nostrud cillum sunt deserunt nostrud ad laborum irure ex. Ipsum nulla quis culpa amet sunt fugiat eu ut labore aute tempor adipisicing ipsum laborum. Consequat excepteur est commodo id fugiat. Velit ex culpa dolore sit amet amet."
  },
  {
    "_id": "5acd549ea05c61d6d7d5fb15",
    "index": 7,
    "isActive": true,
    "picture": "http://placehold.it/1280x550",
    "author": {
      "name": "Brown Rivas",
      "about": "Deserunt Lorem dolore consequat quis mollit incididunt. Ad officia elit mollit nulla mollit. Ipsum cillum fugiat sit ullamco irure mollit laboris aliqua magna pariatur amet.",
      "email": "undefined.undefined@undefined.us"
    },
    "title": "CONFERIA",
    "about": "Laboris laboris aliqua in deserunt dolore. Laborum in ullamco culpa reprehenderit culpa laborum non ea ad quis. Voluptate sint voluptate adipisicing laborum consequat ex ea do dolore labore esse irure culpa. Laboris velit deserunt labore sunt nulla excepteur magna elit elit irure ut duis. Veniam fugiat est labore labore. Consectetur sint consequat consectetur adipisicing veniam nisi nulla Lorem adipisicing ea enim. Ad eu pariatur duis duis velit aliqua aute.\n\nEnim labore aute consequat nisi consectetur ullamco excepteur magna nisi aliquip labore aute ad. Veniam velit ipsum incididunt ut nisi est aliquip commodo adipisicing commodo pariatur tempor eiusmod. Excepteur ullamco non consequat fugiat Lorem fugiat sunt nulla qui laborum cupidatat ex."
  },
  {
    "_id": "5acd549e4ecdc666e3f00644",
    "index": 8,
    "isActive": false,
    "picture": "http://placehold.it/1280x550",
    "author": {
      "name": "Ester Weiss",
      "about": "Ad dolor sit nostrud minim nostrud magna esse. Exercitation Lorem officia sunt sunt laboris sint commodo consectetur velit. Et velit cupidatat minim ut veniam nulla magna cupidatat do in ad nisi. Veniam elit sit consectetur reprehenderit adipisicing commodo ex culpa. Minim ad commodo commodo sit culpa adipisicing anim laboris amet nulla non eu occaecat Lorem. Voluptate sunt adipisicing do elit consequat fugiat ut minim ullamco proident amet aliqua. Anim aliqua dolor incididunt id qui eu ut nostrud cillum eiusmod.",
      "email": "undefined.undefined@undefined.name"
    },
    "title": "MUSAPHICS",
    "about": "Adipisicing velit irure duis irure cillum anim nisi. Anim mollit non Lorem magna commodo consequat et incididunt ex mollit. Ea voluptate laborum est ea dolor esse. Mollit voluptate nulla nostrud est veniam labore non ex et.\n\nFugiat fugiat cupidatat id deserunt dolore minim esse. Dolor proident ea occaecat ad eu cillum do. Do do velit reprehenderit in. Commodo in eu sit et ad fugiat aute anim elit consectetur ullamco. Amet dolore sint id aute anim cillum sint non reprehenderit."
  },
  {
    "_id": "5acd549fe8063043edf3c1dd",
    "index": 9,
    "isActive": false,
    "picture": "http://placehold.it/1280x550",
    "author": {
      "name": "Rosie Moore",
      "about": "Mollit nisi veniam ullamco ex reprehenderit reprehenderit velit velit magna ea irure. Exercitation pariatur tempor nulla et veniam excepteur consectetur elit ad do excepteur. Non eiusmod reprehenderit minim ullamco incididunt. Sunt anim fugiat aliquip duis et adipisicing do cupidatat duis velit. Nisi sint ex ut consequat cillum nostrud proident incididunt aute esse proident non et deserunt. Adipisicing veniam aliqua reprehenderit eiusmod deserunt excepteur enim est dolor dolore.",
      "email": "undefined.undefined@undefined.net"
    },
    "title": "ORBOID",
    "about": "Laborum dolore minim minim do ipsum minim. Labore enim dolore labore pariatur eiusmod exercitation aliquip eiusmod consectetur nisi. Cillum exercitation ipsum eu adipisicing do deserunt aliquip ex cupidatat cillum dolor occaecat exercitation. Ex ad proident esse magna reprehenderit aute ad qui qui eu est ad culpa enim.\n\nEiusmod magna adipisicing cupidatat ullamco ullamco exercitation. Ex velit exercitation nulla tempor. Ullamco pariatur ut labore id amet nisi ullamco do eu."
  },
  {
    "_id": "5acd549f6ac62a0ebe159e7f",
    "index": 10,
    "isActive": true,
    "picture": "http://placehold.it/1280x550",
    "author": {
      "name": "Todd Clarke",
      "about": "Officia Lorem mollit ea ut amet voluptate quis consectetur esse esse ea pariatur id anim. Sint duis ea ex aute voluptate. Est quis tempor commodo sint ea culpa labore id duis laboris. Mollit commodo ullamco aliqua do commodo consectetur officia ea occaecat cillum elit ad. Nulla eiusmod amet incididunt cupidatat.",
      "email": "undefined.undefined@undefined.ca"
    },
    "title": "KRAGGLE",
    "about": "Elit velit dolor excepteur id cupidatat sit proident do reprehenderit adipisicing magna commodo reprehenderit. Ut reprehenderit do culpa occaecat reprehenderit. Duis anim non deserunt aute et. Consequat ea culpa nisi excepteur Lorem officia sunt. Consequat incididunt eu adipisicing incididunt exercitation.\n\nVeniam aliqua Lorem consequat eiusmod reprehenderit. Ullamco est culpa commodo dolore aute enim reprehenderit dolore aliquip veniam ex exercitation aliqua id. Ea sit et minim in aliqua qui fugiat id. Pariatur magna qui ea magna fugiat. In labore deserunt dolor mollit tempor consectetur irure non enim ea ad culpa. Ad duis magna duis et eiusmod officia ipsum mollit velit occaecat ad."
  },
  {
    "_id": "5acd549f428ad5a1e635da41",
    "index": 11,
    "isActive": false,
    "picture": "http://placehold.it/1280x550",
    "author": {
      "name": "Avery Rodgers",
      "about": "Duis anim nulla adipisicing minim sit esse quis adipisicing do. Esse aliquip ad sunt minim dolore officia Lorem irure. In consequat qui aute ea velit velit minim. In velit et nulla irure elit non aliqua sit tempor. Consectetur enim excepteur sunt proident id amet pariatur sint laboris officia nulla nulla consequat cillum. Aliquip elit officia incididunt labore nulla eu.",
      "email": "undefined.undefined@undefined.tv"
    },
    "title": "INSURON",
    "about": "Dolore cupidatat mollit laboris elit ullamco consequat ea reprehenderit deserunt laboris do Lorem duis. Ipsum laboris pariatur duis tempor voluptate labore nulla cillum cupidatat aliqua. Incididunt labore ullamco cupidatat ut proident ipsum ipsum. Anim tempor reprehenderit nostrud est dolor eu. Pariatur duis nulla velit incididunt sunt dolore magna quis.\n\nAliquip labore ex incididunt sit commodo ad aliqua consectetur. Eu excepteur proident cillum duis laborum quis nisi Lorem sit nostrud. Et incididunt duis ut aliqua non. Aliqua excepteur sunt aliqua Lorem. Minim eu officia laboris quis aliquip deserunt enim tempor sit nisi esse aute. Ullamco do dolor proident consectetur minim ut pariatur sit do nostrud. Excepteur adipisicing ex irure et."
  },
  {
    "_id": "5acd549fed3331589465c6fc",
    "index": 12,
    "isActive": true,
    "picture": "http://placehold.it/1280x550",
    "author": {
      "name": "Conley Holden",
      "about": "Fugiat ex incididunt occaecat elit fugiat pariatur ea nisi cillum nisi esse irure fugiat adipisicing. Sint occaecat qui non labore laborum exercitation incididunt aliqua magna laborum. Velit quis mollit exercitation anim occaecat irure dolore laboris ea ut in. Ullamco pariatur adipisicing magna irure nulla nisi eu culpa. Est cupidatat sint reprehenderit sunt aliquip et sit irure ad ipsum. Velit laboris voluptate mollit est eu officia in ut occaecat culpa.",
      "email": "undefined.undefined@undefined.biz"
    },
    "title": "HATOLOGY",
    "about": "Nisi sint ad proident reprehenderit laboris cillum elit sint nostrud ipsum aliquip. Pariatur eiusmod cillum do adipisicing. Commodo irure id consectetur est voluptate id eiusmod non veniam cupidatat nostrud sunt. Nostrud ut qui quis minim Lorem quis aute irure ad est cupidatat anim aute voluptate. Magna Lorem do non tempor nostrud.\n\nLaboris qui anim ut laboris in labore aliquip consequat non eu cillum aute. Ut deserunt nostrud id cillum minim fugiat tempor sint cillum ad tempor ex reprehenderit. Et sint consectetur Lorem laboris."
  },
  {
    "_id": "5acd549f68b62a72b9a6a742",
    "index": 13,
    "isActive": true,
    "picture": "http://placehold.it/1280x550",
    "author": {
      "name": "Parker Swanson",
      "about": "Sint Lorem irure amet velit consequat duis exercitation non eiusmod elit. Mollit exercitation consectetur magna eu non ad adipisicing quis in fugiat do. Voluptate labore tempor proident sit cupidatat irure consequat dolore excepteur magna.",
      "email": "undefined.undefined@undefined.io"
    },
    "title": "QUILTIGEN",
    "about": "Consectetur anim voluptate elit excepteur esse veniam mollit exercitation occaecat. Velit laborum cupidatat ex adipisicing eiusmod fugiat id reprehenderit aliqua eiusmod minim qui voluptate. Cillum ullamco mollit sunt veniam labore eiusmod esse pariatur magna nisi in non. Consequat aliquip tempor ad est commodo et fugiat culpa nisi nisi. Incididunt ad ex et magna occaecat in cillum nulla deserunt. Duis dolore ipsum est fugiat culpa irure eu quis labore cillum qui voluptate. Do consectetur elit veniam aute sint cillum laborum aliquip magna labore.\n\nFugiat occaecat qui esse do eu consequat sunt. Non anim et amet excepteur dolore nulla dolore qui ullamco magna nisi minim. Proident eu amet magna sunt. Occaecat non magna ea labore nisi incididunt adipisicing qui consequat ut ut. Ex dolor velit deserunt ullamco irure magna exercitation irure. Magna ipsum ipsum aliqua ea eiusmod aliqua aliquip sunt duis cupidatat consectetur esse consectetur sint."
  }
]
